<svg version="1.1" xmlns="http://www.w3.org/2000/svg" xmlns:xlink="http://www.w3.org/1999/xlink" x="0px" y="0px"
	 width="18.75px" height="15px" viewBox="0 0 18.75 15" enable-background="new 0 0 18.75 15" xml:space="preserve">
<rect x="-389.686" y="-301.455" display="none" fill-rule="evenodd" clip-rule="evenodd" fill="#662D91" width="795.061" height="615.455"/>
<g>
	<path fill-rule="evenodd" clip-rule="evenodd" fill="#FFFFFF" d="M16.831,3.736c0.007,0.162,0.01,0.325,0.01,0.489
		C16.841,9.23,12.972,15,5.897,15C3.723,15,1.703,14.375,0,13.298c0.301,0.036,0.606,0.052,0.917,0.052
		c1.802,0,3.461-0.604,4.778-1.621c-1.683-0.029-3.105-1.124-3.595-2.628C2.336,9.146,2.579,9.17,2.826,9.17
		c0.349,0,0.689-0.048,1.014-0.134C2.079,8.688,0.752,7.157,0.752,5.324c0-0.019,0-0.034,0-0.048
		C1.271,5.558,1.865,5.73,2.496,5.749c-1.033-0.68-1.713-1.838-1.713-3.151c0-0.695,0.189-1.344,0.521-1.905
		c1.897,2.292,4.732,3.798,7.929,3.958C9.169,4.374,9.135,4.082,9.135,3.786C9.135,1.695,10.857,0,12.982,0
		c1.106,0,2.106,0.461,2.806,1.196c0.878-0.17,1.7-0.485,2.445-0.919c-0.289,0.883-0.898,1.626-1.693,2.094
		c0.778-0.088,1.521-0.294,2.21-0.594C18.233,2.535,17.583,3.201,16.831,3.736z"/>
</g>
</svg>
