<?xml version="1.0" encoding="utf-8"?>
<!-- Generator: Adobe Illustrator 17.0.0, SVG Export Plug-In . SVG Version: 6.00 Build 0)  -->
<!DOCTYPE svg PUBLIC "-//W3C//DTD SVG 1.1//EN" "http://www.w3.org/Graphics/SVG/1.1/DTD/svg11.dtd">
<svg version="1.1" xmlns="http://www.w3.org/2000/svg" xmlns:xlink="http://www.w3.org/1999/xlink" x="0px" y="0px" width="24px"
	 height="24px" viewBox="0 0 24 24" enable-background="new 0 0 24 24" xml:space="preserve">
<g id="Close_Button">
</g>
<g id="Icon_Pointers">
	<g id="Restaurants_2_">
	</g>
	<g id="Recreation_1_">
	</g>
	<g id="Coffee_1_">
	</g>
	<g id="Shopping_1_">
		<path fill-rule="evenodd" clip-rule="evenodd" fill="#B1B0B1" d="M12,0c6.627,0,12,5.373,12,12s-5.373,12-12,12S0,18.627,0,12
			S5.373,0,12,0z"/>
		<g>
			<path fill="#FFFFFF" d="M13.42,9.719c-0.196,0-0.355-0.159-0.355-0.355c0-0.921-0.17-1.42-1.065-1.42
				c-0.9,0-1.065,0.478-1.065,1.42c0,0.196-0.444,0.355-0.64,0.355s-0.07-0.159-0.07-0.355c0-0.582,0-2.129,1.774-2.129
				c1.774,0,1.774,1.547,1.774,2.129C13.775,9.56,13.616,9.719,13.42,9.719z"/>
			<path fill="#FFFFFF" d="M15.434,10.346c-0.019-0.151-0.155-0.272-0.304-0.272H8.869c-0.148,0-0.284,0.121-0.304,0.272
				l-1.121,5.959c-0.032,0.252,0.1,0.461,0.296,0.461h8.517c0.195,0,0.328-0.209,0.296-0.461L15.434,10.346z M10.403,11.493
				c-0.294,0-0.532-0.238-0.532-0.532s0.238-0.532,0.532-0.532c0.294,0,0.532,0.239,0.532,0.532S10.697,11.493,10.403,11.493z
				 M13.597,11.493c-0.294,0-0.532-0.238-0.532-0.532s0.238-0.532,0.532-0.532c0.294,0,0.532,0.239,0.532,0.532
				S13.891,11.493,13.597,11.493z"/>
		</g>
	</g>
</g>
<g id="Icon_Nav">
	<g id="Coffee">
	</g>
	<g id="Recreation">
	</g>
	<g id="Shopping">
	</g>
	<g id="Restaurants">
	</g>
	<g id="Reset">
	</g>
	<g id="Zoom_In">
	</g>
	<g id="Zoom_Out">
	</g>
</g>
</svg>
