<?xml version="1.0" encoding="utf-8"?>
<!-- Generator: Adobe Illustrator 17.0.0, SVG Export Plug-In . SVG Version: 6.00 Build 0)  -->
<!DOCTYPE svg PUBLIC "-//W3C//DTD SVG 1.1//EN" "http://www.w3.org/Graphics/SVG/1.1/DTD/svg11.dtd">
<svg version="1.1" xmlns="http://www.w3.org/2000/svg" xmlns:xlink="http://www.w3.org/1999/xlink" x="0px" y="0px" width="24px"
	 height="24px" viewBox="0 0 24 24" enable-background="new 0 0 24 24" xml:space="preserve">
<g id="Close_Button">
</g>
<g id="Icon_Pointers">
	<g id="Restaurants_2_">
	</g>
	<g id="Recreation_1_">
	</g>
	<g id="Coffee_1_">
		<g>
			<path fill-rule="evenodd" clip-rule="evenodd" fill="#B1B0B1" d="M12,0c6.627,0,12,5.373,12,12s-5.373,12-12,12S0,18.627,0,12
				S5.373,0,12,0z"/>
		</g>
		<g>
			<path fill="#FFFFFF" d="M16.547,10.133c-0.597-0.409-1.175-0.482-1.473-0.482c-0.068,0-0.131,0.002-0.192,0.005V9.068H7.409
				v3.679c0,1.821,1.476,3.531,3.296,3.531h0.88c1.21,0,2.266-0.889,2.839-1.862c0.1,0.014,0.283,0.033,0.522,0.033
				c0.321,0,0.889-0.067,1.519-0.48c0.638-0.409,0.913-0.963,0.913-1.968C17.378,11.154,17.15,10.539,16.547,10.133z M15.815,12.992
				c-0.319,0.218-0.708,0.284-0.869,0.284c-0.039,0-0.075-0.001-0.11-0.002c0.028-0.172,0.046-0.347,0.046-0.526v-1.917
				c0.059-0.004,0.123-0.006,0.192-0.006c0.119,0,0.52,0.07,0.803,0.273c0.276,0.205,0.327,0.525,0.327,0.905
				C16.204,12.428,16.126,12.77,15.815,12.992z"/>
		</g>
	</g>
	<g id="Shopping_1_">
	</g>
</g>
<g id="Icon_Nav">
	<g id="Coffee">
	</g>
	<g id="Recreation">
	</g>
	<g id="Shopping">
	</g>
	<g id="Restaurants">
	</g>
	<g id="Reset">
	</g>
	<g id="Zoom_In">
	</g>
	<g id="Zoom_Out">
	</g>
</g>
</svg>
